RISC-V Vivado.sim/sim_1/behav/xsim/cache_tb.vcd
$date
   Fri Sep 12 10:34:24 2025
$end

$version
  2025.1.0
  $dumpfile ("cache_tb.vcd") 
$end

$timescale
  1ps
$end

$scope module tb_cache $end
$var reg 1 ! clk $end
$var reg 1 " reset_high $end
$var wire 1 # rst_n $end
$var reg 32 $ PC1 [31:0] $end
$var reg 32 % PC2 [31:0] $end
$var wire 32 & instr1 [31:0] $end
$var wire 32 ' instr2 [31:0] $end
$var wire 1 ( instr_valid $end
$var wire 32 ) mem_addr [31:0] $end
$var wire 1 * mem_read_en $end
$var wire 128 + mem_read_data [127:0] $end
$var wire 1 , mem_ready $end
$var integer 32 - i [31:0] $end
$scope module mem_inst $end
$var wire 1 . reset $end
$var wire 32 ) addr [31:0] $end
$var reg 128 / line [127:0] $end
$var reg 32 0 line_base [31:0] $end
$var reg 10 1 base_idx [9:0] $end
$var integer 32 2 i [31:0] $end
$upscope $end
$scope module cache_inst $end
$var wire 1 3 clk $end
$var wire 1 # rst_n $end
$var wire 32 4 PC1 [31:0] $end
$var wire 32 5 PC2 [31:0] $end
$var reg 32 6 instr1 [31:0] $end
$var reg 32 7 instr2 [31:0] $end
$var reg 1 8 instr_valid $end
$var reg 32 9 mem_addr [31:0] $end
$var reg 1 : mem_read_en $end
$var wire 1 , mem_ready $end
$var wire 128 + mem_read_data [127:0] $end
$var reg 24 ; tag1 [23:0] $end
$var reg 24 < tag2 [23:0] $end
$var reg 4 = indx1 [3:0] $end
$var reg 4 > indx2 [3:0] $end
$var reg 4 ? off1 [3:0] $end
$var reg 4 @ off2 [3:0] $end
$var reg 2 A woff1 [1:0] $end
$var reg 2 B woff2 [1:0] $end
$var reg 25 C tag_out1 [24:0] $end
$var reg 25 D tag_out2 [24:0] $end
$var reg 128 E data_out1 [127:0] $end
$var reg 128 F data_out2 [127:0] $end
$var reg 1 G hit1 $end
$var reg 1 H hit2 $end
$var reg 2 I state_reg $end
$var reg 2 J next_state $end
$var reg 1 K refill_req1_r $end
$var reg 1 L refill_req2_r $end
$var reg 4 M refill_idx_r [3:0] $end
$var reg 24 N refill_tag_r [23:0] $end
$var reg 1 O refill_req1_n $end
$var reg 1 P refill_req2_n $end
$var reg 4 Q refill_idx_n [3:0] $end
$var reg 24 R refill_tag_n [23:0] $end
$var reg 1 S ready1 $end
$var reg 1 T ready2 $end
$var reg 32 U out1 [31:0] $end
$var reg 32 V out2 [31:0] $end
$var integer 32 W i [31:0] $end
$scope function word_from_block $end
$upscope $end
$upscope $end
$scope task fetch_and_print $end
$upscope $end
$upscope $end
$enddefinitions $end

#0
$dumpvars
0!
1"
0#
b0 $
b100 %
b0 &
b0 '
0(
b0 )
0*
b10000010010100000100011000000001100000010100100000000110000000010110101011101001011001100000000011100110000001010110011 +
1,
bx -
1.
b10000010010100000100011000000001100000010100100000000110000000010110101011101001011001100000000011100110000001010110011 /
b0 0
b0 1
b10000 2
03
b0 4
b100 5
b0 6
b0 7
08
b0 9
0:
b0 ;
b0 <
b0 =
b0 >
b0 ?
b100 @
b0 A
b1 B
b0 C
b0 D
b0 E
b0 F
0G
0H
b0 I
b1 J
0K
0L
b0 M
b0 N
1O
1P
b0 Q
b0 R
0S
0T
b0 U
b0 V
b10000 W
$end

#5000
1!
13
b10000 W

#10000
0!
03

#15000
1!
13
b10000 W

#20000
0!
03

#25000
1!
13
b10000 W

#30000
0!
03

#35000
1!
0"
1#
0.
13
b10000 W

#40000
0!
03

#45000
1!
1*
13
1:
b1 I
b10 J
1K
1L

#50000
0!
03

#55000
1!
b11100110000001010110011 &
b101101010111010010110011 '
1(
0*
13
b11100110000001010110011 6
b101101010111010010110011 7
18
0:
b1000000000000000000000000 C
b1000000000000000000000000 D
b10000010010100000100011000000001100000010100100000000110000000010110101011101001011001100000000011100110000001010110011 E
b10000010010100000100011000000001100000010100100000000110000000010110101011101001011001100000000011100110000001010110011 F
1G
1H
b10 I
b0 J
0O
0P
1S
1T
b11100110000001010110011 U
b101101010111010010110011 V

#60000
0!
03

#65000
1!
13
b0 I
0K
0L
1S
1T
b11100110000001010110011 U
b101101010111010010110011 V

#70000
0!
03

#75000
1!
13

#80000
0!
03

#85000
1!
13

#90000
0!
03

#95000
1!
b1000 $
b1100 %
b110000001010010000000011 &
b10000010010100000100011 '
13
b1000 4
b1100 5
b110000001010010000000011 6
b10000010010100000100011 7
b1000 ?
b1100 @
b10 A
b11 B
1S
1T
b110000001010010000000011 U
b10000010010100000100011 V

#100000
0!
03

#105000
1!
13

#110000
0!
03

#115000
1!
b10000 $
b10100 %
b0 &
b0 '
0(
13
b10000 4
b10100 5
b0 6
b0 7
08
b1 =
b1 >
b0 ?
b100 @
b0 A
b1 B
b0 C
b0 D
b0 E
b0 F
0G
0H
b1 J
1O
1P
b1 Q
0S
0T
b0 U
b0 V

#120000
0!
03

#125000
1!
b10000 )
1*
b0 +
b0 /
b10000 0
b10000 1
b10000 2
13
b10000 9
1:
b1 I
b10 J
1K
1L
b1 M

#130000
0!
03

#135000
1!
b0 $
b10000 %
b11100110000001010110011 &
1(
0*
13
b0 4
b10000 5
b11100110000001010110011 6
18
0:
b0 =
b0 @
b0 B
b1000000000000000000000000 C
b1000000000000000000000000 D
b10000010010100000100011000000001100000010100100000000110000000010110101011101001011001100000000011100110000001010110011 E
1G
1H
b10 I
b0 J
0O
0P
1S
1T
b11100110000001010110011 U

#140000
0!
03

#145000
1!
13
b0 I
0K
0L
1S
1T
b11100110000001010110011 U

#150000
0!
03

#155000
1!
13

#160000
0!
03

#165000
1!
b100 %
b101101010111010010110011 '
b0 -
13
b100 5
b101101010111010010110011 7
b0 >
b100 @
b1 B
b10000010010100000100011000000001100000010100100000000110000000010110101011101001011001100000000011100110000001010110011 F
1S
1T
b11100110000001010110011 U
b101101010111010010110011 V

#170000
0!
03

#175000
1!
13

#180000
0!
03

#185000
1!
b1000 $
b1100 %
b110000001010010000000011 &
b10000010010100000100011 '
b1 -
13
b1000 4
b1100 5
b110000001010010000000011 6
b10000010010100000100011 7
b1000 ?
b1100 @
b10 A
b11 B
1S
1T
b110000001010010000000011 U
b10000010010100000100011 V

#190000
0!
03

#195000
1!
13

#200000
0!
03

#205000
1!
b10000 $
b10100 %
b0 &
b0 '
b10 -
13
b10000 4
b10100 5
b0 6
b0 7
b1 =
b1 >
b0 ?
b100 @
b0 A
b1 B
b0 E
b0 F
1S
1T
b0 U
b0 V

#210000
0!
03

#215000
1!
13

#220000
0!
03

#225000
1!
b11000 $
b11100 %
b11 -
13
b11000 4
b11100 5
b1000 ?
b1100 @
b10 A
b11 B
1S
1T

#230000
0!
03

#235000
1!
13

#240000
0!
03

#245000
1!
b100000 $
b100100 %
0(
b100 -
13
b100000 4
b100100 5
08
b10 =
b10 >
b0 ?
b100 @
b0 A
b1 B
b0 C
b0 D
0G
0H
b1 J
1O
1P
b10 Q
0S
0T

#250000
0!
03

#255000
1!
b100000 )
1*
b100000 0
b100000 1
b10000 2
13
b100000 9
1:
b1 I
b10 J
1K
1L
b10 M

#260000
0!
03

#265000
1!
b101000 $
b101100 %
1(
0*
b101 -
13
b101000 4
b101100 5
18
0:
b1000 ?
b1100 @
b10 A
b11 B
b1000000000000000000000000 C
b1000000000000000000000000 D
1G
1H
b10 I
b0 J
0O
0P
1S
1T

#270000
0!
03

#275000
1!
13
b0 I
0K
0L
1S
1T

#280000
0!
03

#285000
1!
13

#290000
0!
03

#295000
1!
b110000 $
b110100 %
0(
b110 -
13
b110000 4
b110100 5
08
b11 =
b11 >
b0 ?
b100 @
b0 A
b1 B
b0 C
b0 D
0G
0H
b1 J
1O
1P
b11 Q
0S
0T

#300000
0!
03

#305000
1!
b110000 )
1*
b110000 0
b110000 1
b10000 2
13
b110000 9
1:
b1 I
b10 J
1K
1L
b11 M

#310000
0!
03

#315000
1!
b111000 $
b111100 %
1(
0*
b111 -
13
b111000 4
b111100 5
18
0:
b1000 ?
b1100 @
b10 A
b11 B
b1000000000000000000000000 C
b1000000000000000000000000 D
1G
1H
b10 I
b0 J
0O
0P
1S
1T

#320000
0!
03

#325000
1!
13
b0 I
0K
0L
1S
1T

#330000
0!
03

#335000
1!
13

#340000
0!
03

#345000
1!
b1000 -
13

